@0
MOV 999, ACC
LOOP1: SUB 1
JGZ LOOP1
MOV 999, ACC
LOOP2: SUB 1
JGZ LOOP2
MOV 999, ACC
LOOP3: SUB 1
JGZ LOOP3
MOV 999, ACC
LOOP4: SUB 1
JGZ LOOP4
LOOP5: SUB 1
JGZ LOOP5
MOV UP, DOWN

@1
MOV 999, ACC
LOOP1: SUB 1
JGZ LOOP1
MOV 999, ACC
LOOP2: SUB 1
JGZ LOOP2
MOV 999, ACC
LOOP3: SUB 1
JGZ LOOP3
MOV 999, ACC
LOOP4: SUB 1
JGZ LOOP4
LOOP5: SUB 1
JGZ LOOP5
MOV RIGHT, DOWN

@2
MOV 999, ACC
LOOP1: SUB 1
JGZ LOOP1
MOV 999, ACC
LOOP2: SUB 1
JGZ LOOP2
MOV 999, ACC
LOOP3: SUB 1
JGZ LOOP3
MOV 999, ACC
LOOP4: SUB 1
JGZ LOOP4
LOOP5: SUB 1
JGZ LOOP5
MOV UP, LEFT

@3
MOV 999, ACC
LOOP1: SUB 1
JGZ LOOP1
MOV 999, ACC
LOOP2: SUB 1
JGZ LOOP2
MOV 999, ACC
LOOP3: SUB 1
JGZ LOOP3
MOV 999, ACC
LOOP4: SUB 1
JGZ LOOP4
LOOP5: SUB 1
JGZ LOOP5
MOV UP, DOWN

@4
MOV 999, ACC
LOOP1: SUB 1
JGZ LOOP1
MOV 999, ACC
LOOP2: SUB 1
JGZ LOOP2
MOV 999, ACC
LOOP3: SUB 1
JGZ LOOP3
MOV 999, ACC
LOOP4: SUB 1
JGZ LOOP4
LOOP5: SUB 1
JGZ LOOP5
MOV UP, DOWN

@5
MOV 999, ACC
LOOP1: SUB 1
JGZ LOOP1
MOV 999, ACC
LOOP2: SUB 1
JGZ LOOP2
MOV 999, ACC
LOOP3: SUB 1
JGZ LOOP3
MOV 999, ACC
LOOP4: SUB 1
JGZ LOOP4
LOOP5: SUB 1
JGZ LOOP5
MOV UP, DOWN

@6
MOV 999, ACC
LOOP1: SUB 1
JGZ LOOP1
MOV 999, ACC
LOOP2: SUB 1
JGZ LOOP2
MOV 999, ACC
LOOP3: SUB 1
JGZ LOOP3
MOV 999, ACC
LOOP4: SUB 1
JGZ LOOP4
LOOP5: SUB 1
JGZ LOOP5
MOV UP, RIGHT

@7
MOV 999, ACC
LOOP1: SUB 1
JGZ LOOP1
MOV 999, ACC
LOOP2: SUB 1
JGZ LOOP2
MOV 999, ACC
LOOP3: SUB 1
JGZ LOOP3
MOV 999, ACC
LOOP4: SUB 1
JGZ LOOP4
LOOP5: SUB 1
JGZ LOOP5
MOV LEFT, DOWN