@0
MOV 0, ACC
SAV #CNT=BAK
NX: MOV UP, ACC
JEZ ESQ
MOV ACC, RIGHT
SWP #CNT=ACC
ADD 1
SAV #CNT=BAK
JMP NX

ESQ: SWP #CNT=ACC
MOV ACC, DOWN

MOV DOWN, NIL

@1


@2


@3
MOV UP, ACC #CNT

@4


@5


@6


@7


@8
